scratch MLB Strikeout Investigation
…
#This code below gives me any player who was EVER a top paid player in the league for a team
#and shows the stats for their whole career... I don't know if that's what I want

#I don't know why, but that filter code below seemed to be what made the left_join below work

top_players <- all_players %>%
  filter((player_id %in% max_salaries$player_id) & (year_id %in% max_salaries$year_id))

salaries_and_stats <- left_join(max_salaries, top_players)

salaries_and_stats

## # A tibble: 977 x 51
## # Groups:   year_id, team_id [?]
##    year_id team_id lg_id player_id salary stint.x   g.x    ab   r.x   h.x
##      <dbl> <chr>   <chr> <chr>      <int>   <dbl> <dbl> <dbl> <dbl> <dbl>
##  1    1985 ATL     NL    murphda05 1.62e6       1   162   616   118   185
##  2    1985 BAL     AL    murraed02 1.47e6       1   156   583   111   173
##  3    1985 BOS     AL    stanlbo01 1.08e6       1    48     0     0     0
##  4    1985 CAL     AL    decindo01 1.10e6       1   120   427    50   104
##  5    1985 CHA     AL    cruzju01  1.24e6       1    91   234    28    46
##  6    1985 CHN     NL    ceyro01   1.45e6       1   145   500    64   116
##  7    1985 CIN     NL    sotoma01  1.07e6       1    37    83     3    11
##  8    1985 CLE     AL    thornan01 1.10e6       1   124   461    49   109
##  9    1985 DET     AL    evansda01 1.08e6       1   151   505    81   125
## 10    1985 HOU     NL    ryanno01  1.35e6       1    35    63     2     7
## # ... with 967 more rows, and 41 more variables: x2b <dbl>, x3b <dbl>,
## #   hr.x <dbl>, rbi <dbl>, sb <dbl>, cs <dbl>, bb.x <dbl>, so.x <dbl>,
## #   ibb.x <lgl>, hbp.x <lgl>, sh.x <lgl>, sf.x <lgl>, gidp.x <dbl>,
## #   stint.y <dbl>, team_id.y <chr>, lg_id.y <chr>, w <dbl>, l <dbl>,
## #   g.y <dbl>, gs <dbl>, cg <dbl>, sho <dbl>, sv <dbl>, i_pouts <dbl>,
## #   h.y <dbl>, er <dbl>, hr.y <dbl>, bb.y <dbl>, so.y <dbl>, ba_opp <lgl>,
## #   era <dbl>, ibb.y <lgl>, wp <dbl>, hbp.y <dbl>, bk <dbl>, bfp <dbl>,
## #   gf <dbl>, r.y <dbl>, sh.y <lgl>, sf.y <lgl>, gidp.y <lgl>

#Now we have top paid players for each year and their stats

#Some things I want to investigate -
#1. are top paid players over time pitchers or batters? Has it evolved?
#2. Are the batters getting paid the most becoming better homerun hitters? Or OBP guys? etc
#3. Are there other trends I can find?

total_max_salary_players <- salaries_and_stats %>%
  group_by(year_id) %>% 
  summarize(total_players = n()) 

total_max_salary_players 

## # A tibble: 32 x 2
##    year_id total_players
##      <dbl>         <int>
##  1    1985            26
##  2    1986            28
##  3    1987            27
##  4    1988            29
##  5    1989            29
##  6    1990            26
##  7    1991            28
##  8    1992            26
##  9    1993            29
## 10    1994            28
## # ... with 22 more rows

#Now I want to see how many are pitchers
#Tod do this, I will filter out players whose pitching stats are NA (here, wins suffices)

total_max_salary_pitchers <- salaries_and_stats %>%
  filter(! is.na(w)) %>%
  group_by(year_id) %>% 
  summarize(total_pitchers = n()) 

total_max_salary_pitchers 

## # A tibble: 32 x 2
##    year_id total_pitchers
##      <dbl>          <int>
##  1    1985              5
##  2    1986             11
##  3    1987             10
##  4    1988             10
##  5    1989             11
##  6    1990              5
##  7    1991             12
##  8    1992             11
##  9    1993             12
## 10    1994             11
## # ... with 22 more rows
…
